Data605 - Final Exam
…
collect_metrics(fit_workflows)

## # A tibble: 1,800 x 9
##    wflow_id       .config preproc model .metric .estimator    mean     n std_err
##    <chr>          <chr>   <chr>   <chr> <chr>   <chr>        <dbl> <int>   <dbl>
##  1 recipe_1_line~ Prepro~ recipe  line~ rmse    standard   4.05e+4    10 8.50e+3
##  2 recipe_1_line~ Prepro~ recipe  line~ rsq     standard   7.75e-1    10 6.66e-2
##  3 recipe_1_line~ Prepro~ recipe  line~ rmse    standard   4.05e+4    10 8.50e+3
##  4 recipe_1_line~ Prepro~ recipe  line~ rsq     standard   7.75e-1    10 6.66e-2
##  5 recipe_1_line~ Prepro~ recipe  line~ rmse    standard   4.05e+4    10 8.50e+3
##  6 recipe_1_line~ Prepro~ recipe  line~ rsq     standard   7.75e-1    10 6.66e-2
##  7 recipe_1_line~ Prepro~ recipe  line~ rmse    standard   4.05e+4    10 8.50e+3
##  8 recipe_1_line~ Prepro~ recipe  line~ rsq     standard   7.75e-1    10 6.66e-2
##  9 recipe_1_line~ Prepro~ recipe  line~ rmse    standard   4.05e+4    10 8.50e+3
## 10 recipe_1_line~ Prepro~ recipe  line~ rsq     standard   7.75e-1    10 6.66e-2
## # ... with 1,790 more rows
…
collect_metrics(workflow_best_tuned)

## # A tibble: 300 x 10
##     mtry trees tree_depth learn_rate .metric .estimator      mean     n  std_err
##    <int> <int>      <int>      <dbl> <chr>   <chr>          <dbl> <int>    <dbl>
##  1     2   677          2    0.00175 rmse    standard   89327.       10  3.60e+3
##  2     2   677          2    0.00175 rsq     standard       0.736    10  2.32e-2
##  3     3   102          7    0.0562  rmse    standard   30858.       10  2.43e+3
##  4     3   102          7    0.0562  rsq     standard       0.859    10  1.60e-2
##  5     6  1851          9    0.0244  rmse    standard   25683.       10  2.30e+3
##  6     6  1851          9    0.0244  rsq     standard       0.897    10  1.60e-2
##  7     6   283         11    0.00579 rmse    standard   54772.       10  2.56e+3
##  8     6   283         11    0.00579 rsq     standard       0.848    10  1.89e-2
##  9     8   792          8    0.315   rmse    standard   31939.       10  2.55e+3
## 10     8   792          8    0.315   rsq     standard       0.839    10  1.82e-2
## # ... with 290 more rows, and 1 more variable: .config <chr>
…
R2 of 0.91

Some visualizations of the selected winner model

fit_test <- workflow_best_final_fit %>% 
  collect_predictions()

fit_test

## # A tibble: 146 x 5
##    id                 .pred  .row SalePrice .config             
##    <chr>              <dbl> <int>     <dbl> <chr>               
##  1 train/test split 301319.     5    250000 Preprocessor1_Model1
##  2 train/test split 124986.    20    139000 Preprocessor1_Model1
##  3 train/test split 180091.    34    165500 Preprocessor1_Model1
##  4 train/test split 133426.    44    130250 Preprocessor1_Model1
##  5 train/test split 145016.    45    141000 Preprocessor1_Model1
##  6 train/test split 310751.    66    317000 Preprocessor1_Model1
##  7 train/test split 263161.    86    260000 Preprocessor1_Model1
##  8 train/test split 147370.    93    163500 Preprocessor1_Model1
##  9 train/test split 187506.    96    185000 Preprocessor1_Model1
## 10 train/test split 204675.   104    198900 Preprocessor1_Model1
## # ... with 136 more rows
…
